Abv	Genome	Archive
79X	https://resources.michael.salk.edu/jbrowsers/data/csat/assemblies/79X/79X.softmasked.fasta.gz	https://resources.michael.salk.edu/jbrowsers/data/csat/assemblies/79X/79X.v2.tar
ABAC	https://resources.michael.salk.edu/jbrowsers/data/csat/assemblies/ABAC/ABAC.softmasked.fasta.gz	https://resources.michael.salk.edu/jbrowsers/data/csat/assemblies/ABAC/ABAC.v2.tar
ABC	https://resources.michael.salk.edu/jbrowsers/data/csat/assemblies/ABC/ABC.softmasked.fasta.gz	https://resources.michael.salk.edu/jbrowsers/data/csat/assemblies/ABC/ABC.v2.tar
ACBD	https://resources.michael.salk.edu/jbrowsers/data/csat/assemblies/ACBD/ACBD.softmasked.fasta.gz	https://resources.michael.salk.edu/jbrowsers/data/csat/assemblies/ACBD/ACBD.v2.tar
ACDC	https://resources.michael.salk.edu/jbrowsers/data/csat/assemblies/ACDC/ACDC.softmasked.fasta.gz	https://resources.michael.salk.edu/jbrowsers/data/csat/assemblies/ACDC/ACDC.v2.tar
AH3Ma	https://resources.michael.salk.edu/jbrowsers/data/csat/assemblies/AH3Ma/AH3Ma.softmasked.fasta.gz	https://resources.michael.salk.edu/jbrowsers/data/csat/assemblies/AH3Ma/AH3Ma.v2.tar
AH3Mb	https://resources.michael.salk.edu/jbrowsers/data/csat/assemblies/AH3Mb/AH3Mb.softmasked.fasta.gz	https://resources.michael.salk.edu/jbrowsers/data/csat/assemblies/AH3Mb/AH3Mb.v2.tar
BBKH	https://resources.michael.salk.edu/jbrowsers/data/csat/assemblies/BBKH/BBKH.softmasked.fasta.gz	https://resources.michael.salk.edu/jbrowsers/data/csat/assemblies/BBKH/BBKH.v2.tar
BCMa	https://resources.michael.salk.edu/jbrowsers/data/csat/assemblies/BCMa/BCMa.softmasked.fasta.gz	https://resources.michael.salk.edu/jbrowsers/data/csat/assemblies/BCMa/BCMa.v2.tar
BCMb	https://resources.michael.salk.edu/jbrowsers/data/csat/assemblies/BCMb/BCMb.softmasked.fasta.gz	https://resources.michael.salk.edu/jbrowsers/data/csat/assemblies/BCMb/BCMb.v2.tar
BH4	https://resources.michael.salk.edu/jbrowsers/data/csat/assemblies/BH4/BH4.softmasked.fasta.gz	https://resources.michael.salk.edu/jbrowsers/data/csat/assemblies/BH4/BH4.v2.tar
BH44	https://resources.michael.salk.edu/jbrowsers/data/csat/assemblies/BH44/BH44.softmasked.fasta.gz	https://resources.michael.salk.edu/jbrowsers/data/csat/assemblies/BH44/BH44.v2.tar
BH55	https://resources.michael.salk.edu/jbrowsers/data/csat/assemblies/BH55/BH55.softmasked.fasta.gz	https://resources.michael.salk.edu/jbrowsers/data/csat/assemblies/BH55/BH55.v2.tar
BLCv1a	https://resources.michael.salk.edu/jbrowsers/data/csat/assemblies/BLCv1a/BLCv1a.softmasked.fasta.gz	https://resources.michael.salk.edu/jbrowsers/data/csat/assemblies/BLCv1a/BLCv1a.v2.tar
BLCv1b	https://resources.michael.salk.edu/jbrowsers/data/csat/assemblies/BLCv1b/BLCv1b.softmasked.fasta.gz	https://resources.michael.salk.edu/jbrowsers/data/csat/assemblies/BLCv1b/BLCv1b.v2.tar
BLYS	https://resources.michael.salk.edu/jbrowsers/data/csat/assemblies/BLYS/BLYS.softmasked.fasta.gz	https://resources.michael.salk.edu/jbrowsers/data/csat/assemblies/BLYS/BLYS.v2.tar
BOAXa	https://resources.michael.salk.edu/jbrowsers/data/csat/assemblies/BOAXa/BOAXa.softmasked.fasta.gz	https://resources.michael.salk.edu/jbrowsers/data/csat/assemblies/BOAXa/BOAXa.v2.tar
BOAXb	https://resources.michael.salk.edu/jbrowsers/data/csat/assemblies/BOAXb/BOAXb.softmasked.fasta.gz	https://resources.michael.salk.edu/jbrowsers/data/csat/assemblies/BOAXb/BOAXb.v2.tar
CALO	https://resources.michael.salk.edu/jbrowsers/data/csat/assemblies/CALO/CALO.softmasked.fasta.gz	https://resources.michael.salk.edu/jbrowsers/data/csat/assemblies/CALO/CALO.v2.tar
CANN	https://resources.michael.salk.edu/jbrowsers/data/csat/assemblies/CANN/CANN.softmasked.fasta.gz	https://resources.michael.salk.edu/jbrowsers/data/csat/assemblies/CANN/CANN.v2.tar
CBDRX	https://resources.michael.salk.edu/jbrowsers/data/csat/assemblies/CBDRX/CBDRX.softmasked.fasta.gz	https://resources.michael.salk.edu/jbrowsers/data/csat/assemblies/CBDRX/CBDRX.v2.tar
CBIO2	https://resources.michael.salk.edu/jbrowsers/data/csat/assemblies/CBIO2/CBIO2.softmasked.fasta.gz	https://resources.michael.salk.edu/jbrowsers/data/csat/assemblies/CBIO2/CBIO2.v2.tar
CHM9	https://resources.michael.salk.edu/jbrowsers/data/csat/assemblies/CHM9/CHM9.softmasked.fasta.gz	https://resources.michael.salk.edu/jbrowsers/data/csat/assemblies/CHM9/CHM9.v2.tar
CHMD3	https://resources.michael.salk.edu/jbrowsers/data/csat/assemblies/CHMD3/CHMD3.softmasked.fasta.gz	https://resources.michael.salk.edu/jbrowsers/data/csat/assemblies/CHMD3/CHMD3.v2.tar
CHMD5	https://resources.michael.salk.edu/jbrowsers/data/csat/assemblies/CHMD5/CHMD5.softmasked.fasta.gz	https://resources.michael.salk.edu/jbrowsers/data/csat/assemblies/CHMD5/CHMD5.v2.tar
CNBv1a	https://resources.michael.salk.edu/jbrowsers/data/csat/assemblies/CNBv1a/CNBv1a.softmasked.fasta.gz	https://resources.michael.salk.edu/jbrowsers/data/csat/assemblies/CNBv1a/CNBv1a.v2.tar
CNBv1b	https://resources.michael.salk.edu/jbrowsers/data/csat/assemblies/CNBv1b/CNBv1b.softmasked.fasta.gz	https://resources.michael.salk.edu/jbrowsers/data/csat/assemblies/CNBv1b/CNBv1b.v2.tar
COFBa	https://resources.michael.salk.edu/jbrowsers/data/csat/assemblies/COFBa/COFBa.softmasked.fasta.gz	https://resources.michael.salk.edu/jbrowsers/data/csat/assemblies/COFBa/COFBa.v2.tar
COFBb	https://resources.michael.salk.edu/jbrowsers/data/csat/assemblies/COFBb/COFBb.softmasked.fasta.gz	https://resources.michael.salk.edu/jbrowsers/data/csat/assemblies/COFBb/COFBb.v2.tar
COSVa	https://resources.michael.salk.edu/jbrowsers/data/csat/assemblies/COSVa/COSVa.softmasked.fasta.gz	https://resources.michael.salk.edu/jbrowsers/data/csat/assemblies/COSVa/COSVa.v2.tar
COSVb	https://resources.michael.salk.edu/jbrowsers/data/csat/assemblies/COSVb/COSVb.softmasked.fasta.gz	https://resources.michael.salk.edu/jbrowsers/data/csat/assemblies/COSVb/COSVb.v2.tar
CST53	https://resources.michael.salk.edu/jbrowsers/data/csat/assemblies/CST53/CST53.softmasked.fasta.gz	https://resources.michael.salk.edu/jbrowsers/data/csat/assemblies/CST53/CST53.v2.tar
CST8	https://resources.michael.salk.edu/jbrowsers/data/csat/assemblies/CST8/CST8.softmasked.fasta.gz	https://resources.michael.salk.edu/jbrowsers/data/csat/assemblies/CST8/CST8.v2.tar
DCHCC	https://resources.michael.salk.edu/jbrowsers/data/csat/assemblies/DCHCC/DCHCC.softmasked.fasta.gz	https://resources.michael.salk.edu/jbrowsers/data/csat/assemblies/DCHCC/DCHCC.v2.tar
DPFBa	https://resources.michael.salk.edu/jbrowsers/data/csat/assemblies/DPFBa/DPFBa.softmasked.fasta.gz	https://resources.michael.salk.edu/jbrowsers/data/csat/assemblies/DPFBa/DPFBa.v2.tar
DPFBb	https://resources.michael.salk.edu/jbrowsers/data/csat/assemblies/DPFBb/DPFBb.softmasked.fasta.gz	https://resources.michael.salk.edu/jbrowsers/data/csat/assemblies/DPFBb/DPFBb.v2.tar
DPSVa	https://resources.michael.salk.edu/jbrowsers/data/csat/assemblies/DPSVa/DPSVa.softmasked.fasta.gz	https://resources.michael.salk.edu/jbrowsers/data/csat/assemblies/DPSVa/DPSVa.v2.tar
DPSVb	https://resources.michael.salk.edu/jbrowsers/data/csat/assemblies/DPSVb/DPSVb.softmasked.fasta.gz	https://resources.michael.salk.edu/jbrowsers/data/csat/assemblies/DPSVb/DPSVb.v2.tar
DRBP	https://resources.michael.salk.edu/jbrowsers/data/csat/assemblies/DRBP/DRBP.softmasked.fasta.gz	https://resources.michael.salk.edu/jbrowsers/data/csat/assemblies/DRBP/DRBP.v2.tar
EH23a	https://resources.michael.salk.edu/jbrowsers/data/csat/assemblies/EH23a/EH23a.softmasked.fasta.gz	https://resources.michael.salk.edu/jbrowsers/data/csat/assemblies/EH23a/EH23a.v2.tar
EH23b	https://resources.michael.salk.edu/jbrowsers/data/csat/assemblies/EH23b/EH23b.softmasked.fasta.gz	https://resources.michael.salk.edu/jbrowsers/data/csat/assemblies/EH23b/EH23b.v2.tar
ERB	https://resources.michael.salk.edu/jbrowsers/data/csat/assemblies/ERB/ERB.softmasked.fasta.gz	https://resources.michael.salk.edu/jbrowsers/data/csat/assemblies/ERB/ERB.v2.tar
FB191	https://resources.michael.salk.edu/jbrowsers/data/csat/assemblies/FB191/FB191.softmasked.fasta.gz	https://resources.michael.salk.edu/jbrowsers/data/csat/assemblies/FB191/FB191.v2.tar
FB30	https://resources.michael.salk.edu/jbrowsers/data/csat/assemblies/FB30/FB30.softmasked.fasta.gz	https://resources.michael.salk.edu/jbrowsers/data/csat/assemblies/FB30/FB30.v2.tar
FBHO	https://resources.michael.salk.edu/jbrowsers/data/csat/assemblies/FBHO/FBHO.softmasked.fasta.gz	https://resources.michael.salk.edu/jbrowsers/data/csat/assemblies/FBHO/FBHO.v2.tar
FCS1a	https://resources.michael.salk.edu/jbrowsers/data/csat/assemblies/FCS1a/FCS1a.softmasked.fasta.gz	https://resources.michael.salk.edu/jbrowsers/data/csat/assemblies/FCS1a/FCS1a.v2.tar
FCS1b	https://resources.michael.salk.edu/jbrowsers/data/csat/assemblies/FCS1b/FCS1b.softmasked.fasta.gz	https://resources.michael.salk.edu/jbrowsers/data/csat/assemblies/FCS1b/FCS1b.v2.tar
FIMv1a	https://resources.michael.salk.edu/jbrowsers/data/csat/assemblies/FIMv1a/FIMv1a.softmasked.fasta.gz	https://resources.michael.salk.edu/jbrowsers/data/csat/assemblies/FIMv1a/FIMv1a.v2.tar
FIMv1b	https://resources.michael.salk.edu/jbrowsers/data/csat/assemblies/FIMv1b/FIMv1b.softmasked.fasta.gz	https://resources.michael.salk.edu/jbrowsers/data/csat/assemblies/FIMv1b/FIMv1b.v2.tar
FIN	https://resources.michael.salk.edu/jbrowsers/data/csat/assemblies/FIN/FIN.softmasked.fasta.gz	https://resources.michael.salk.edu/jbrowsers/data/csat/assemblies/FIN/FIN.v2.tar
FMv1a	https://resources.michael.salk.edu/jbrowsers/data/csat/assemblies/FMv1a/FMv1a.softmasked.fasta.gz	https://resources.michael.salk.edu/jbrowsers/data/csat/assemblies/FMv1a/FMv1a.v2.tar
FMv1b	https://resources.michael.salk.edu/jbrowsers/data/csat/assemblies/FMv1b/FMv1b.softmasked.fasta.gz	https://resources.michael.salk.edu/jbrowsers/data/csat/assemblies/FMv1b/FMv1b.v2.tar
FOG	https://resources.michael.salk.edu/jbrowsers/data/csat/assemblies/FOG/FOG.softmasked.fasta.gz	https://resources.michael.salk.edu/jbrowsers/data/csat/assemblies/FOG/FOG.v2.tar
GERv1a	https://resources.michael.salk.edu/jbrowsers/data/csat/assemblies/GERv1a/GERv1a.softmasked.fasta.gz	https://resources.michael.salk.edu/jbrowsers/data/csat/assemblies/GERv1a/GERv1a.v2.tar
GERv1b	https://resources.michael.salk.edu/jbrowsers/data/csat/assemblies/GERv1b/GERv1b.softmasked.fasta.gz	https://resources.michael.salk.edu/jbrowsers/data/csat/assemblies/GERv1b/GERv1b.v2.tar
GMO	https://resources.michael.salk.edu/jbrowsers/data/csat/assemblies/GMO/GMO.softmasked.fasta.gz	https://resources.michael.salk.edu/jbrowsers/data/csat/assemblies/GMO/GMO.v2.tar
GRMa	https://resources.michael.salk.edu/jbrowsers/data/csat/assemblies/GRMa/GRMa.softmasked.fasta.gz	https://resources.michael.salk.edu/jbrowsers/data/csat/assemblies/GRMa/GRMa.v2.tar
GRMb	https://resources.michael.salk.edu/jbrowsers/data/csat/assemblies/GRMb/GRMb.softmasked.fasta.gz	https://resources.michael.salk.edu/jbrowsers/data/csat/assemblies/GRMb/GRMb.v2.tar
GSC	https://resources.michael.salk.edu/jbrowsers/data/csat/assemblies/GSC/GSC.softmasked.fasta.gz	https://resources.michael.salk.edu/jbrowsers/data/csat/assemblies/GSC/GSC.v2.tar
H3S1a	https://resources.michael.salk.edu/jbrowsers/data/csat/assemblies/H3S1a/H3S1a.softmasked.fasta.gz	https://resources.michael.salk.edu/jbrowsers/data/csat/assemblies/H3S1a/H3S1a.v2.tar
H3S1b	https://resources.michael.salk.edu/jbrowsers/data/csat/assemblies/H3S1b/H3S1b.softmasked.fasta.gz	https://resources.michael.salk.edu/jbrowsers/data/csat/assemblies/H3S1b/H3S1b.v2.tar
H3S7a	https://resources.michael.salk.edu/jbrowsers/data/csat/assemblies/H3S7a/H3S7a.softmasked.fasta.gz	https://resources.michael.salk.edu/jbrowsers/data/csat/assemblies/H3S7a/H3S7a.v2.tar
H3S7b	https://resources.michael.salk.edu/jbrowsers/data/csat/assemblies/H3S7b/H3S7b.softmasked.fasta.gz	https://resources.michael.salk.edu/jbrowsers/data/csat/assemblies/H3S7b/H3S7b.v2.tar
HO40	https://resources.michael.salk.edu/jbrowsers/data/csat/assemblies/HO40/HO40.softmasked.fasta.gz	https://resources.michael.salk.edu/jbrowsers/data/csat/assemblies/HO40/HO40.v2.tar
I3	https://resources.michael.salk.edu/jbrowsers/data/csat/assemblies/I3/I3.softmasked.fasta.gz	https://resources.michael.salk.edu/jbrowsers/data/csat/assemblies/I3/I3.v2.tar
I52	https://resources.michael.salk.edu/jbrowsers/data/csat/assemblies/I52/I52.softmasked.fasta.gz	https://resources.michael.salk.edu/jbrowsers/data/csat/assemblies/I52/I52.v2.tar
I53	https://resources.michael.salk.edu/jbrowsers/data/csat/assemblies/I53/I53.softmasked.fasta.gz	https://resources.michael.salk.edu/jbrowsers/data/csat/assemblies/I53/I53.v2.tar
I59	https://resources.michael.salk.edu/jbrowsers/data/csat/assemblies/I59/I59.softmasked.fasta.gz	https://resources.michael.salk.edu/jbrowsers/data/csat/assemblies/I59/I59.v2.tar
I61	https://resources.michael.salk.edu/jbrowsers/data/csat/assemblies/I61/I61.softmasked.fasta.gz	https://resources.michael.salk.edu/jbrowsers/data/csat/assemblies/I61/I61.v2.tar
I68	https://resources.michael.salk.edu/jbrowsers/data/csat/assemblies/I68/I68.softmasked.fasta.gz	https://resources.michael.salk.edu/jbrowsers/data/csat/assemblies/I68/I68.v2.tar
I75	https://resources.michael.salk.edu/jbrowsers/data/csat/assemblies/I75/I75.softmasked.fasta.gz	https://resources.michael.salk.edu/jbrowsers/data/csat/assemblies/I75/I75.v2.tar
I78	https://resources.michael.salk.edu/jbrowsers/data/csat/assemblies/I78/I78.softmasked.fasta.gz	https://resources.michael.salk.edu/jbrowsers/data/csat/assemblies/I78/I78.v2.tar
ITLv1a	https://resources.michael.salk.edu/jbrowsers/data/csat/assemblies/ITLv1a/ITLv1a.softmasked.fasta.gz	https://resources.michael.salk.edu/jbrowsers/data/csat/assemblies/ITLv1a/ITLv1a.v2.tar
ITLv1b	https://resources.michael.salk.edu/jbrowsers/data/csat/assemblies/ITLv1b/ITLv1b.softmasked.fasta.gz	https://resources.michael.salk.edu/jbrowsers/data/csat/assemblies/ITLv1b/ITLv1b.v2.tar
JL	https://resources.michael.salk.edu/jbrowsers/data/csat/assemblies/JL/JL.softmasked.fasta.gz	https://resources.michael.salk.edu/jbrowsers/data/csat/assemblies/JL/JL.v2.tar
JLD	https://resources.michael.salk.edu/jbrowsers/data/csat/assemblies/JLD/JLD.softmasked.fasta.gz	https://resources.michael.salk.edu/jbrowsers/data/csat/assemblies/JLD/JLD.v2.tar
JLDSH	https://resources.michael.salk.edu/jbrowsers/data/csat/assemblies/JLDSH/JLDSH.softmasked.fasta.gz	https://resources.michael.salk.edu/jbrowsers/data/csat/assemblies/JLDSH/JLDSH.v2.tar
JLF	https://resources.michael.salk.edu/jbrowsers/data/csat/assemblies/JLF/JLF.softmasked.fasta.gz	https://resources.michael.salk.edu/jbrowsers/data/csat/assemblies/JLF/JLF.v2.tar
JLM	https://resources.michael.salk.edu/jbrowsers/data/csat/assemblies/JLM/JLM.softmasked.fasta.gz	https://resources.michael.salk.edu/jbrowsers/data/csat/assemblies/JLM/JLM.v2.tar
KCDv1a	https://resources.michael.salk.edu/jbrowsers/data/csat/assemblies/KCDv1a/KCDv1a.softmasked.fasta.gz	https://resources.michael.salk.edu/jbrowsers/data/csat/assemblies/KCDv1a/KCDv1a.v2.tar
KCDv1b	https://resources.michael.salk.edu/jbrowsers/data/csat/assemblies/KCDv1b/KCDv1b.softmasked.fasta.gz	https://resources.michael.salk.edu/jbrowsers/data/csat/assemblies/KCDv1b/KCDv1b.v2.tar
KOMPa	https://resources.michael.salk.edu/jbrowsers/data/csat/assemblies/KOMPa/KOMPa.softmasked.fasta.gz	https://resources.michael.salk.edu/jbrowsers/data/csat/assemblies/KOMPa/KOMPa.v2.tar
KOMPb	https://resources.michael.salk.edu/jbrowsers/data/csat/assemblies/KOMPb/KOMPb.softmasked.fasta.gz	https://resources.michael.salk.edu/jbrowsers/data/csat/assemblies/KOMPb/KOMPb.v2.tar
LP10	https://resources.michael.salk.edu/jbrowsers/data/csat/assemblies/LP10/LP10.softmasked.fasta.gz	https://resources.michael.salk.edu/jbrowsers/data/csat/assemblies/LP10/LP10.v2.tar
LP6	https://resources.michael.salk.edu/jbrowsers/data/csat/assemblies/LP6/LP6.softmasked.fasta.gz	https://resources.michael.salk.edu/jbrowsers/data/csat/assemblies/LP6/LP6.v2.tar
MBFBa	https://resources.michael.salk.edu/jbrowsers/data/csat/assemblies/MBFBa/MBFBa.softmasked.fasta.gz	https://resources.michael.salk.edu/jbrowsers/data/csat/assemblies/MBFBa/MBFBa.v2.tar
MBFBb	https://resources.michael.salk.edu/jbrowsers/data/csat/assemblies/MBFBb/MBFBb.softmasked.fasta.gz	https://resources.michael.salk.edu/jbrowsers/data/csat/assemblies/MBFBb/MBFBb.v2.tar
MBSVa	https://resources.michael.salk.edu/jbrowsers/data/csat/assemblies/MBSVa/MBSVa.softmasked.fasta.gz	https://resources.michael.salk.edu/jbrowsers/data/csat/assemblies/MBSVa/MBSVa.v2.tar
MBSVb	https://resources.michael.salk.edu/jbrowsers/data/csat/assemblies/MBSVb/MBSVb.softmasked.fasta.gz	https://resources.michael.salk.edu/jbrowsers/data/csat/assemblies/MBSVb/MBSVb.v2.tar
MM3v1a	https://resources.michael.salk.edu/jbrowsers/data/csat/assemblies/MM3v1a/MM3v1a.softmasked.fasta.gz	https://resources.michael.salk.edu/jbrowsers/data/csat/assemblies/MM3v1a/MM3v1a.v2.tar
MM3v1b	https://resources.michael.salk.edu/jbrowsers/data/csat/assemblies/MM3v1b/MM3v1b.softmasked.fasta.gz	https://resources.michael.salk.edu/jbrowsers/data/csat/assemblies/MM3v1b/MM3v1b.v2.tar
MNDB	https://resources.michael.salk.edu/jbrowsers/data/csat/assemblies/MNDB/MNDB.softmasked.fasta.gz	https://resources.michael.salk.edu/jbrowsers/data/csat/assemblies/MNDB/MNDB.v2.tar
NLv1a	https://resources.michael.salk.edu/jbrowsers/data/csat/assemblies/NLv1a/NLv1a.softmasked.fasta.gz	https://resources.michael.salk.edu/jbrowsers/data/csat/assemblies/NLv1a/NLv1a.v2.tar
NLv1b	https://resources.michael.salk.edu/jbrowsers/data/csat/assemblies/NLv1b/NLv1b.softmasked.fasta.gz	https://resources.michael.salk.edu/jbrowsers/data/csat/assemblies/NLv1b/NLv1b.v2.tar
OFBa	https://resources.michael.salk.edu/jbrowsers/data/csat/assemblies/OFBa/OFBa.softmasked.fasta.gz	https://resources.michael.salk.edu/jbrowsers/data/csat/assemblies/OFBa/OFBa.v2.tar
OFBb	https://resources.michael.salk.edu/jbrowsers/data/csat/assemblies/OFBb/OFBb.softmasked.fasta.gz	https://resources.michael.salk.edu/jbrowsers/data/csat/assemblies/OFBb/OFBb.v2.tar
OFP5	https://resources.michael.salk.edu/jbrowsers/data/csat/assemblies/OFP5/OFP5.softmasked.fasta.gz	https://resources.michael.salk.edu/jbrowsers/data/csat/assemblies/OFP5/OFP5.v2.tar
P20	https://resources.michael.salk.edu/jbrowsers/data/csat/assemblies/P20/P20.softmasked.fasta.gz	https://resources.michael.salk.edu/jbrowsers/data/csat/assemblies/P20/P20.v2.tar
P22	https://resources.michael.salk.edu/jbrowsers/data/csat/assemblies/P22/P22.softmasked.fasta.gz	https://resources.michael.salk.edu/jbrowsers/data/csat/assemblies/P22/P22.v2.tar
PBBK	https://resources.michael.salk.edu/jbrowsers/data/csat/assemblies/PBBK/PBBK.softmasked.fasta.gz	https://resources.michael.salk.edu/jbrowsers/data/csat/assemblies/PBBK/PBBK.v2.tar
PK	https://resources.michael.salk.edu/jbrowsers/data/csat/assemblies/PK/PK.softmasked.fasta.gz	https://resources.michael.salk.edu/jbrowsers/data/csat/assemblies/PK/PK.v2.tar
PPFBa	https://resources.michael.salk.edu/jbrowsers/data/csat/assemblies/PPFBa/PPFBa.softmasked.fasta.gz	https://resources.michael.salk.edu/jbrowsers/data/csat/assemblies/PPFBa/PPFBa.v2.tar
PPFBb	https://resources.michael.salk.edu/jbrowsers/data/csat/assemblies/PPFBb/PPFBb.softmasked.fasta.gz	https://resources.michael.salk.edu/jbrowsers/data/csat/assemblies/PPFBb/PPFBb.v2.tar
PTK32	https://resources.michael.salk.edu/jbrowsers/data/csat/assemblies/PTK32/PTK32.softmasked.fasta.gz	https://resources.michael.salk.edu/jbrowsers/data/csat/assemblies/PTK32/PTK32.v2.tar
PURD	https://resources.michael.salk.edu/jbrowsers/data/csat/assemblies/PURD/PURD.softmasked.fasta.gz	https://resources.michael.salk.edu/jbrowsers/data/csat/assemblies/PURD/PURD.v2.tar
PURP	https://resources.michael.salk.edu/jbrowsers/data/csat/assemblies/PURP/PURP.softmasked.fasta.gz	https://resources.michael.salk.edu/jbrowsers/data/csat/assemblies/PURP/PURP.v2.tar
S8H2LR	https://resources.michael.salk.edu/jbrowsers/data/csat/assemblies/S8H2LR/S8H2LR.softmasked.fasta.gz	https://resources.michael.salk.edu/jbrowsers/data/csat/assemblies/S8H2LR/S8H2LR.v2.tar
S8Ha	https://resources.michael.salk.edu/jbrowsers/data/csat/assemblies/S8Ha/S8Ha.softmasked.fasta.gz	https://resources.michael.salk.edu/jbrowsers/data/csat/assemblies/S8Ha/S8Ha.v2.tar
S8Hb	https://resources.michael.salk.edu/jbrowsers/data/csat/assemblies/S8Hb/S8Hb.softmasked.fasta.gz	https://resources.michael.salk.edu/jbrowsers/data/csat/assemblies/S8Hb/S8Hb.v2.tar
S8LR	https://resources.michael.salk.edu/jbrowsers/data/csat/assemblies/S8LR/S8LR.softmasked.fasta.gz	https://resources.michael.salk.edu/jbrowsers/data/csat/assemblies/S8LR/S8LR.v2.tar
SAN2a	https://resources.michael.salk.edu/jbrowsers/data/csat/assemblies/SAN2a/SAN2a.softmasked.fasta.gz	https://resources.michael.salk.edu/jbrowsers/data/csat/assemblies/SAN2a/SAN2a.v2.tar
SAN2b	https://resources.michael.salk.edu/jbrowsers/data/csat/assemblies/SAN2b/SAN2b.softmasked.fasta.gz	https://resources.michael.salk.edu/jbrowsers/data/csat/assemblies/SAN2b/SAN2b.v2.tar
SCFB	https://resources.michael.salk.edu/jbrowsers/data/csat/assemblies/SCFB/SCFB.softmasked.fasta.gz	https://resources.michael.salk.edu/jbrowsers/data/csat/assemblies/SCFB/SCFB.v2.tar
SDFBa	https://resources.michael.salk.edu/jbrowsers/data/csat/assemblies/SDFBa/SDFBa.softmasked.fasta.gz	https://resources.michael.salk.edu/jbrowsers/data/csat/assemblies/SDFBa/SDFBa.v2.tar
SDFBb	https://resources.michael.salk.edu/jbrowsers/data/csat/assemblies/SDFBb/SDFBb.softmasked.fasta.gz	https://resources.michael.salk.edu/jbrowsers/data/csat/assemblies/SDFBb/SDFBb.v2.tar
SDI	https://resources.michael.salk.edu/jbrowsers/data/csat/assemblies/SDI/SDI.softmasked.fasta.gz	https://resources.michael.salk.edu/jbrowsers/data/csat/assemblies/SDI/SDI.v2.tar
SG123	https://resources.michael.salk.edu/jbrowsers/data/csat/assemblies/SG123/SG123.softmasked.fasta.gz	https://resources.michael.salk.edu/jbrowsers/data/csat/assemblies/SG123/SG123.v2.tar
SGVA	https://resources.michael.salk.edu/jbrowsers/data/csat/assemblies/SGVA/SGVA.softmasked.fasta.gz	https://resources.michael.salk.edu/jbrowsers/data/csat/assemblies/SGVA/SGVA.v2.tar
SH50	https://resources.michael.salk.edu/jbrowsers/data/csat/assemblies/SH50/SH50.softmasked.fasta.gz	https://resources.michael.salk.edu/jbrowsers/data/csat/assemblies/SH50/SH50.v2.tar
SHH24	https://resources.michael.salk.edu/jbrowsers/data/csat/assemblies/SHH24/SHH24.softmasked.fasta.gz	https://resources.michael.salk.edu/jbrowsers/data/csat/assemblies/SHH24/SHH24.v2.tar
SHH5a	https://resources.michael.salk.edu/jbrowsers/data/csat/assemblies/SHH5a/SHH5a.softmasked.fasta.gz	https://resources.michael.salk.edu/jbrowsers/data/csat/assemblies/SHH5a/SHH5a.v2.tar
SHH5b	https://resources.michael.salk.edu/jbrowsers/data/csat/assemblies/SHH5b/SHH5b.softmasked.fasta.gz	https://resources.michael.salk.edu/jbrowsers/data/csat/assemblies/SHH5b/SHH5b.v2.tar
SHLR	https://resources.michael.salk.edu/jbrowsers/data/csat/assemblies/SHLR/SHLR.softmasked.fasta.gz	https://resources.michael.salk.edu/jbrowsers/data/csat/assemblies/SHLR/SHLR.v2.tar
SK88	https://resources.michael.salk.edu/jbrowsers/data/csat/assemblies/SK88/SK88.softmasked.fasta.gz	https://resources.michael.salk.edu/jbrowsers/data/csat/assemblies/SK88/SK88.v2.tar
SKFBa	https://resources.michael.salk.edu/jbrowsers/data/csat/assemblies/SKFBa/SKFBa.softmasked.fasta.gz	https://resources.michael.salk.edu/jbrowsers/data/csat/assemblies/SKFBa/SKFBa.v2.tar
SKFBb	https://resources.michael.salk.edu/jbrowsers/data/csat/assemblies/SKFBb/SKFBb.softmasked.fasta.gz	https://resources.michael.salk.edu/jbrowsers/data/csat/assemblies/SKFBb/SKFBb.v2.tar
SKSV	https://resources.michael.salk.edu/jbrowsers/data/csat/assemblies/SKSV/SKSV.softmasked.fasta.gz	https://resources.michael.salk.edu/jbrowsers/data/csat/assemblies/SKSV/SKSV.v2.tar
SKTZ	https://resources.michael.salk.edu/jbrowsers/data/csat/assemblies/SKTZ/SKTZ.softmasked.fasta.gz	https://resources.michael.salk.edu/jbrowsers/data/csat/assemblies/SKTZ/SKTZ.v2.tar
SMSQ	https://resources.michael.salk.edu/jbrowsers/data/csat/assemblies/SMSQ/SMSQ.softmasked.fasta.gz	https://resources.michael.salk.edu/jbrowsers/data/csat/assemblies/SMSQ/SMSQ.v2.tar
SN1v3a	https://resources.michael.salk.edu/jbrowsers/data/csat/assemblies/SN1v3a/SN1v3a.softmasked.fasta.gz	https://resources.michael.salk.edu/jbrowsers/data/csat/assemblies/SN1v3a/SN1v3a.v2.tar
SN1v3b	https://resources.michael.salk.edu/jbrowsers/data/csat/assemblies/SN1v3b/SN1v3b.softmasked.fasta.gz	https://resources.michael.salk.edu/jbrowsers/data/csat/assemblies/SN1v3b/SN1v3b.v2.tar
SODLa	https://resources.michael.salk.edu/jbrowsers/data/csat/assemblies/SODLa/SODLa.softmasked.fasta.gz	https://resources.michael.salk.edu/jbrowsers/data/csat/assemblies/SODLa/SODLa.v2.tar
SODLb	https://resources.michael.salk.edu/jbrowsers/data/csat/assemblies/SODLb/SODLb.softmasked.fasta.gz	https://resources.michael.salk.edu/jbrowsers/data/csat/assemblies/SODLb/SODLb.v2.tar
SSA1	https://resources.michael.salk.edu/jbrowsers/data/csat/assemblies/SSA1/SSA1.softmasked.fasta.gz	https://resources.michael.salk.edu/jbrowsers/data/csat/assemblies/SSA1/SSA1.v2.tar
SSA2	https://resources.michael.salk.edu/jbrowsers/data/csat/assemblies/SSA2/SSA2.softmasked.fasta.gz	https://resources.michael.salk.edu/jbrowsers/data/csat/assemblies/SSA2/SSA2.v2.tar
SSH	https://resources.michael.salk.edu/jbrowsers/data/csat/assemblies/SSH/SSH.softmasked.fasta.gz	https://resources.michael.salk.edu/jbrowsers/data/csat/assemblies/SSH/SSH.v2.tar
SSHS	https://resources.michael.salk.edu/jbrowsers/data/csat/assemblies/SSHS/SSHS.softmasked.fasta.gz	https://resources.michael.salk.edu/jbrowsers/data/csat/assemblies/SSHS/SSHS.v2.tar
SSLR	https://resources.michael.salk.edu/jbrowsers/data/csat/assemblies/SSLR/SSLR.softmasked.fasta.gz	https://resources.michael.salk.edu/jbrowsers/data/csat/assemblies/SSLR/SSLR.v2.tar
SSV	https://resources.michael.salk.edu/jbrowsers/data/csat/assemblies/SSV/SSV.softmasked.fasta.gz	https://resources.michael.salk.edu/jbrowsers/data/csat/assemblies/SSV/SSV.v2.tar
STHa	https://resources.michael.salk.edu/jbrowsers/data/csat/assemblies/STHa/STHa.softmasked.fasta.gz	https://resources.michael.salk.edu/jbrowsers/data/csat/assemblies/STHa/STHa.v2.tar
STHb	https://resources.michael.salk.edu/jbrowsers/data/csat/assemblies/STHb/STHb.softmasked.fasta.gz	https://resources.michael.salk.edu/jbrowsers/data/csat/assemblies/STHb/STHb.v2.tar
STLR	https://resources.michael.salk.edu/jbrowsers/data/csat/assemblies/STLR/STLR.softmasked.fasta.gz	https://resources.michael.salk.edu/jbrowsers/data/csat/assemblies/STLR/STLR.v2.tar
SUNDR	https://resources.michael.salk.edu/jbrowsers/data/csat/assemblies/SUNDR/SUNDR.softmasked.fasta.gz	https://resources.michael.salk.edu/jbrowsers/data/csat/assemblies/SUNDR/SUNDR.v2.tar
SUV8	https://resources.michael.salk.edu/jbrowsers/data/csat/assemblies/SUV8/SUV8.softmasked.fasta.gz	https://resources.michael.salk.edu/jbrowsers/data/csat/assemblies/SUV8/SUV8.v2.tar
SV2	https://resources.michael.salk.edu/jbrowsers/data/csat/assemblies/SV2/SV2.softmasked.fasta.gz	https://resources.michael.salk.edu/jbrowsers/data/csat/assemblies/SV2/SV2.v2.tar
SVA12a	https://resources.michael.salk.edu/jbrowsers/data/csat/assemblies/SVA12a/SVA12a.softmasked.fasta.gz	https://resources.michael.salk.edu/jbrowsers/data/csat/assemblies/SVA12a/SVA12a.v2.tar
SVA12b	https://resources.michael.salk.edu/jbrowsers/data/csat/assemblies/SVA12b/SVA12b.softmasked.fasta.gz	https://resources.michael.salk.edu/jbrowsers/data/csat/assemblies/SVA12b/SVA12b.v2.tar
SVA6a	https://resources.michael.salk.edu/jbrowsers/data/csat/assemblies/SVA6a/SVA6a.softmasked.fasta.gz	https://resources.michael.salk.edu/jbrowsers/data/csat/assemblies/SVA6a/SVA6a.v2.tar
SVA6b	https://resources.michael.salk.edu/jbrowsers/data/csat/assemblies/SVA6b/SVA6b.softmasked.fasta.gz	https://resources.michael.salk.edu/jbrowsers/data/csat/assemblies/SVA6b/SVA6b.v2.tar
SZFBa	https://resources.michael.salk.edu/jbrowsers/data/csat/assemblies/SZFBa/SZFBa.softmasked.fasta.gz	https://resources.michael.salk.edu/jbrowsers/data/csat/assemblies/SZFBa/SZFBa.v2.tar
SZFBb	https://resources.michael.salk.edu/jbrowsers/data/csat/assemblies/SZFBb/SZFBb.softmasked.fasta.gz	https://resources.michael.salk.edu/jbrowsers/data/csat/assemblies/SZFBb/SZFBb.v2.tar
TIBv1a	https://resources.michael.salk.edu/jbrowsers/data/csat/assemblies/TIBv1a/TIBv1a.softmasked.fasta.gz	https://resources.michael.salk.edu/jbrowsers/data/csat/assemblies/TIBv1a/TIBv1a.v2.tar
TIBv1b	https://resources.michael.salk.edu/jbrowsers/data/csat/assemblies/TIBv1b/TIBv1b.softmasked.fasta.gz	https://resources.michael.salk.edu/jbrowsers/data/csat/assemblies/TIBv1b/TIBv1b.v2.tar
TK10	https://resources.michael.salk.edu/jbrowsers/data/csat/assemblies/TK10/TK10.softmasked.fasta.gz	https://resources.michael.salk.edu/jbrowsers/data/csat/assemblies/TK10/TK10.v2.tar
TK7	https://resources.michael.salk.edu/jbrowsers/data/csat/assemblies/TK7/TK7.softmasked.fasta.gz	https://resources.michael.salk.edu/jbrowsers/data/csat/assemblies/TK7/TK7.v2.tar
TKFBa	https://resources.michael.salk.edu/jbrowsers/data/csat/assemblies/TKFBa/TKFBa.softmasked.fasta.gz	https://resources.michael.salk.edu/jbrowsers/data/csat/assemblies/TKFBa/TKFBa.v2.tar
TKFBb	https://resources.michael.salk.edu/jbrowsers/data/csat/assemblies/TKFBb/TKFBb.softmasked.fasta.gz	https://resources.michael.salk.edu/jbrowsers/data/csat/assemblies/TKFBb/TKFBb.v2.tar
TRWR	https://resources.michael.salk.edu/jbrowsers/data/csat/assemblies/TRWR/TRWR.softmasked.fasta.gz	https://resources.michael.salk.edu/jbrowsers/data/csat/assemblies/TRWR/TRWR.v2.tar
TS13	https://resources.michael.salk.edu/jbrowsers/data/csat/assemblies/TS13/TS13.softmasked.fasta.gz	https://resources.michael.salk.edu/jbrowsers/data/csat/assemblies/TS13/TS13.v2.tar
TST192	https://resources.michael.salk.edu/jbrowsers/data/csat/assemblies/TST192/TST192.softmasked.fasta.gz	https://resources.michael.salk.edu/jbrowsers/data/csat/assemblies/TST192/TST192.v2.tar
TST58	https://resources.michael.salk.edu/jbrowsers/data/csat/assemblies/TST58/TST58.softmasked.fasta.gz	https://resources.michael.salk.edu/jbrowsers/data/csat/assemblies/TST58/TST58.v2.tar
TURv1a	https://resources.michael.salk.edu/jbrowsers/data/csat/assemblies/TURv1a/TURv1a.softmasked.fasta.gz	https://resources.michael.salk.edu/jbrowsers/data/csat/assemblies/TURv1a/TURv1a.v2.tar
TURv1b	https://resources.michael.salk.edu/jbrowsers/data/csat/assemblies/TURv1b/TURv1b.softmasked.fasta.gz	https://resources.michael.salk.edu/jbrowsers/data/csat/assemblies/TURv1b/TURv1b.v2.tar
TWFBa	https://resources.michael.salk.edu/jbrowsers/data/csat/assemblies/TWFBa/TWFBa.softmasked.fasta.gz	https://resources.michael.salk.edu/jbrowsers/data/csat/assemblies/TWFBa/TWFBa.v2.tar
TWFBb	https://resources.michael.salk.edu/jbrowsers/data/csat/assemblies/TWFBb/TWFBb.softmasked.fasta.gz	https://resources.michael.salk.edu/jbrowsers/data/csat/assemblies/TWFBb/TWFBb.v2.tar
TWSVa	https://resources.michael.salk.edu/jbrowsers/data/csat/assemblies/TWSVa/TWSVa.softmasked.fasta.gz	https://resources.michael.salk.edu/jbrowsers/data/csat/assemblies/TWSVa/TWSVa.v2.tar
TWSVb	https://resources.michael.salk.edu/jbrowsers/data/csat/assemblies/TWSVb/TWSVb.softmasked.fasta.gz	https://resources.michael.salk.edu/jbrowsers/data/csat/assemblies/TWSVb/TWSVb.v2.tar
UFBa	https://resources.michael.salk.edu/jbrowsers/data/csat/assemblies/UFBa/UFBa.softmasked.fasta.gz	https://resources.michael.salk.edu/jbrowsers/data/csat/assemblies/UFBa/UFBa.v2.tar
UFBb	https://resources.michael.salk.edu/jbrowsers/data/csat/assemblies/UFBb/UFBb.softmasked.fasta.gz	https://resources.michael.salk.edu/jbrowsers/data/csat/assemblies/UFBb/UFBb.v2.tar
URKL	https://resources.michael.salk.edu/jbrowsers/data/csat/assemblies/URKL/URKL.softmasked.fasta.gz	https://resources.michael.salk.edu/jbrowsers/data/csat/assemblies/URKL/URKL.v2.tar
USV	https://resources.michael.salk.edu/jbrowsers/data/csat/assemblies/USV/USV.softmasked.fasta.gz	https://resources.michael.salk.edu/jbrowsers/data/csat/assemblies/USV/USV.v2.tar
W103	https://resources.michael.salk.edu/jbrowsers/data/csat/assemblies/W103/W103.softmasked.fasta.gz	https://resources.michael.salk.edu/jbrowsers/data/csat/assemblies/W103/W103.v2.tar
W19LR	https://resources.michael.salk.edu/jbrowsers/data/csat/assemblies/W19LR/W19LR.softmasked.fasta.gz	https://resources.michael.salk.edu/jbrowsers/data/csat/assemblies/W19LR/W19LR.v2.tar
WC	https://resources.michael.salk.edu/jbrowsers/data/csat/assemblies/WC/WC.softmasked.fasta.gz	https://resources.michael.salk.edu/jbrowsers/data/csat/assemblies/WC/WC.v2.tar
WCFBa	https://resources.michael.salk.edu/jbrowsers/data/csat/assemblies/WCFBa/WCFBa.softmasked.fasta.gz	https://resources.michael.salk.edu/jbrowsers/data/csat/assemblies/WCFBa/WCFBa.v2.tar
WCFBb	https://resources.michael.salk.edu/jbrowsers/data/csat/assemblies/WCFBb/WCFBb.softmasked.fasta.gz	https://resources.michael.salk.edu/jbrowsers/data/csat/assemblies/WCFBb/WCFBb.v2.tar
WCSV	https://resources.michael.salk.edu/jbrowsers/data/csat/assemblies/WCSV/WCSV.softmasked.fasta.gz	https://resources.michael.salk.edu/jbrowsers/data/csat/assemblies/WCSV/WCSV.v2.tar
WFv1a	https://resources.michael.salk.edu/jbrowsers/data/csat/assemblies/WFv1a/WFv1a.softmasked.fasta.gz	https://resources.michael.salk.edu/jbrowsers/data/csat/assemblies/WFv1a/WFv1a.v2.tar
WFv1b	https://resources.michael.salk.edu/jbrowsers/data/csat/assemblies/WFv1b/WFv1b.softmasked.fasta.gz	https://resources.michael.salk.edu/jbrowsers/data/csat/assemblies/WFv1b/WFv1b.v2.tar
WH106	https://resources.michael.salk.edu/jbrowsers/data/csat/assemblies/WH106/WH106.softmasked.fasta.gz	https://resources.michael.salk.edu/jbrowsers/data/csat/assemblies/WH106/WH106.v2.tar
WH72	https://resources.michael.salk.edu/jbrowsers/data/csat/assemblies/WH72/WH72.softmasked.fasta.gz	https://resources.michael.salk.edu/jbrowsers/data/csat/assemblies/WH72/WH72.v2.tar
WH94	https://resources.michael.salk.edu/jbrowsers/data/csat/assemblies/WH94/WH94.softmasked.fasta.gz	https://resources.michael.salk.edu/jbrowsers/data/csat/assemblies/WH94/WH94.v2.tar
WH96	https://resources.michael.salk.edu/jbrowsers/data/csat/assemblies/WH96/WH96.softmasked.fasta.gz	https://resources.michael.salk.edu/jbrowsers/data/csat/assemblies/WH96/WH96.v2.tar
WHLR	https://resources.michael.salk.edu/jbrowsers/data/csat/assemblies/WHLR/WHLR.softmasked.fasta.gz	https://resources.michael.salk.edu/jbrowsers/data/csat/assemblies/WHLR/WHLR.v2.tar
WHWa	https://resources.michael.salk.edu/jbrowsers/data/csat/assemblies/WHWa/WHWa.softmasked.fasta.gz	https://resources.michael.salk.edu/jbrowsers/data/csat/assemblies/WHWa/WHWa.v2.tar
WHWb	https://resources.michael.salk.edu/jbrowsers/data/csat/assemblies/WHWb/WHWb.softmasked.fasta.gz	https://resources.michael.salk.edu/jbrowsers/data/csat/assemblies/WHWb/WHWb.v2.tar
WIv1a	https://resources.michael.salk.edu/jbrowsers/data/csat/assemblies/WIv1a/WIv1a.softmasked.fasta.gz	https://resources.michael.salk.edu/jbrowsers/data/csat/assemblies/WIv1a/WIv1a.v2.tar
WIv1b	https://resources.michael.salk.edu/jbrowsers/data/csat/assemblies/WIv1b/WIv1b.softmasked.fasta.gz	https://resources.michael.salk.edu/jbrowsers/data/csat/assemblies/WIv1b/WIv1b.v2.tar
WLR	https://resources.michael.salk.edu/jbrowsers/data/csat/assemblies/WLR/WLR.softmasked.fasta.gz	https://resources.michael.salk.edu/jbrowsers/data/csat/assemblies/WLR/WLR.v2.tar
YMMv1a	https://resources.michael.salk.edu/jbrowsers/data/csat/assemblies/YMMv1a/YMMv1a.softmasked.fasta.gz	https://resources.michael.salk.edu/jbrowsers/data/csat/assemblies/YMMv1a/YMMv1a.v2.tar
YMMv1b	https://resources.michael.salk.edu/jbrowsers/data/csat/assemblies/YMMv1b/YMMv1b.softmasked.fasta.gz	https://resources.michael.salk.edu/jbrowsers/data/csat/assemblies/YMMv1b/YMMv1b.v2.tar
YMv2a	https://resources.michael.salk.edu/jbrowsers/data/csat/assemblies/YMv2a/YMv2a.softmasked.fasta.gz	https://resources.michael.salk.edu/jbrowsers/data/csat/assemblies/YMv2a/YMv2a.v2.tar
YMv2b	https://resources.michael.salk.edu/jbrowsers/data/csat/assemblies/YMv2b/YMv2b.softmasked.fasta.gz	https://resources.michael.salk.edu/jbrowsers/data/csat/assemblies/YMv2b/YMv2b.v2.tar
